,,,,,,,,,,,,,,,,,,,,,
순번,분류,,,,,,,생산 및 특수능력,,,,오픈조건,,,관련 파일 및 스케일,,,,,,좌표
,등급,이름,English,종류,학명,크기,출현지,터치생산,자동생산,특수능력,유물포인트,오픈조건1(생명나무레벨),오픈조건(동물수),오픈조건3,스케일,아틀라스명,스파인파일명,제이슨파일명,사운드1 파일명,사운드2 파일명,
10001,normal,아프리카코끼리,African elephant,코끼리,Loxodonta africana,,아프리카,150%,150%,,10,10,,,90%,eleph_1.atlas,eleph_1.spine,eleph_1.json.txt,1.ogg,2.ogg,
10002,normal,둥근귀코끼리,Forest elephant,코끼리,Loxodonta cyclotis,,아프리카,150%,150%,,10,10,,,80%,eleph_2.atlas,eleph_2.spine,eleph_2.json.txt,1.ogg,2.ogg,
10003,normal,흰코뿔소,White rhino,코뿔소,Ceratotherium simum,,아프리카,150%,150%,,10,50,,,80%,rhino_1.atlas,rhino_1.spine,rhino_1.json.txt,1.ogg,2.ogg,
10004,normal,침팬지,Chimpanzee,유인원,Pan troglodytes,,아프리카,150%,150%,,10,,5,,70%,ape_1.atlas,ape_1.spine,ape_1.json.txt,,,
10005,normal,하마,Hippo,하마,Hippopotamus amphibius,,아프리카,150%,150%,,10,50,,,100%,hipo_1.atlas,hipo_1.spine,hipo_1.json.txt,1.ogg,2.ogg,
10006,rare,검은영양,Sable antelope,큰영양,Hippotragus niger,,아프리카,150%,150%,,10,100,,형광고사리,80%,b_gazel_4.atlas,b_gazel_4.spine,b_gazel_4.json.txt,,,
10007,normal,덤불맷돼지,Bushpig,돼지,Potamochoerus porcus,,아프리카,150%,150%,,10,100,,,80%,hog_2.atlas,hog_2.spine,hog_2.json.txt,,,
10008,normal,점박이하이에나,Spotted hyena,하이에나,Crocuta crocuta,,아프리카,150%,150%,,10,100,10,,100%,Hyaen_1.atlas,Hyaen_1.spine,Hyaen_1.json.txt,,,
10009,normal,소,Bull,소,Bos taurus,,아프리카,150%,150%,,10,200,,,90%,bull_3.atlas,bull_3.spine,bull_3.json.txt,,,
10010,normal,사자,Lion,사자,Panthera leo,,아프리카,150%,150%,,10,200,,,90%,bigcat_1.atlas,bigcat_1.spine,bigcat_1.json.txt,,,
10011,normal,맨드릴비비,Mandrill,유인원,Mandrillus sphinx ,,아프리카,150%,150%,,10,200,,,80%,ape_4.atlas,ape_4.spine,ape_4.json.txt,,,
10012,rare,꼬마하마,Pygmy hippo,하마,Choeropsis liberiensis,,아프리카,150%,150%,,10,300,,사자바위,50%,hipo_3.atlas,hipo_3.spine,hipo_3.json.txt,1.ogg,2.ogg,
10013,normal,혹맷돼지,Warthog,돼지,Phacochoerus africanus,,아프리카,150%,150%,,10,300,,,70%,hog_1.atlas,hog_1.spine,hog_1.json.txt,,,
10014,rare,사막여우,Fennec Fox,여우,Vulpes zerda,,아프리카,150%,150%,,10,300,,형광고사리-레벨200,70%,fox_2.atlas,fox_2.spine,fox_2.json.txt,,,
10015,normal,얼룩말,Zebra,말,Equus quagga,,아프리카,150%,150%,,10,500,20,,90%,hors_1.atlas,hors_1.spine,hors_1.json.txt,,,
10016,normal,흰오릭스,Oryx dammah,큰영양,Orix gazella dammah,,아프리카,150%,150%,,10,500,,,90%,b_gazel_2.atlas,b_gazel_2.spine,b_gazel_2.json.txt,,,
10017,normal,갈색하이에나,Brown hyena,하이에나,Hyaena brunnea,,아프리카,150%,150%,,10,500,,,90%,Hyaen_2.atlas,Hyaen_2.spine,Hyaen_2.json.txt,,,
10018,normal,천산갑,Ardvark,돼지,Orycteropus afer,,아프리카,150%,150%,,10,600,,,100%,arma_1.atlas,arma_1.spine,arma_1.json.txt,,,
10019,rare,검은코뿔소,Black rhino,코뿔소,Diceros bicornis,,아프리카,150%,150%,,10,600,,학자리,70%,rhino_2.atlas,rhino_2.spine,rhino_2.json.txt,1.ogg,2.ogg,
10020,normal,파란영양,Bluebuck,작은영양,Hippotragus leucophaeus,,아프리카,150%,150%,,10,600,,,90%,s_gazel_2.atlas,s_gazel_2.spine,s_gazel_2.json.txt,,,
10021,normal,누우,Gnu,소,Connochaetes gnou,,아프리카,150%,150%,,10,600,,,70%,bull_2.atlas,bull_2.spine,bull_2.json.txt,,,
10022,normal,오카피,Okapi,말,Okapia johnstoni,,아프리카,150%,150%,,10,700,30,,100%,hors_3.atlas,hors_3.spine,hors_3.json.txt,,,
10023,normal,개코원숭이,Baboon,유인원,Papio anubis,,아프리카,150%,150%,,10,700,,,60%,ape_3.atlas,ape_3.spine,ape_3.json.txt,,,
10024,normal,베이사오릭스,Beisa oryx,큰영양,Oryx beisa,,아프리카,150%,150%,,10,700,,,90%,b_gazel_3.atlas,b_gazel_3.json.spine,b_gazel_3.json.txt,,,
10025,rare,흑표범,Panther,사자,Panthera pardus pardus,,아프리카,150%,150%,,10,800,,,80%,bigcat_4.atlas,bigcat_4.spine,bigcat_4.json.txt,,,
10026,normal,돼지,Pig,돼지,Sus scrofa domesticus,,아프리카,150%,150%,,10,800,,,70%,hog_3.atlas,hog_3.spine,hog_3.json.txt,,,
10027,normal,표범,Leopard,사자,Panthera pardus pardus,,아프리카,150%,150%,,10,800,,,80%,bigcat_3.atlas,bigcat_3.spine,bigcat_3.json.txt,,,
10028,normal,줄무늬하이에나,Striped hyena,하이에나,Hyaena hyaena,,아프리카,150%,150%,,10,900,,하수구,80%,Hyaen_3.atlas,Hyaen_3.spine,Hyaen_3.json.txt,,,
10029,normal,톰슨가젤,Thomsonii,작은영양,Eudorcas thomsonii,,아프리카,150%,150%,,10,900,,,70%,s_gazel_1.atlas,s_gazel_1.spine,s_gazel_1.json.txt,,,
10030,normal,버팔로,Cape buffalo,소,Syncerus caffer,,아프리카,150%,150%,,10,900,40,,90%,bull_1.atlas,bull_1.spine,bull_1.json.txt,,,
10031,normal,큰귀여우,Long-eared fox,여우,Otocyon megalotis,,아프리카,150%,150%,,10,1000,,,70%,fox_3.atlas,fox_3.spine,fox_3.json.txt,,,
10032,normal,그물무늬기린,Reticulated giraffe,기린,Giraffa camelopardalis reticulata,,아프리카,150%,150%,,10,1000,,,100%,grif_1.atlas,grif_1.spine,grif_1.json.txt,,,
10033,normal,굴토끼,Cony,토끼,Oryctolagus cuniculus,,아프리카,150%,150%,,10,1000,,,70%,rabbit_2.atlas,rabbit_2.spine,rabbit_2.json.txt,,,
10034,normal,홍학,Flamingo,대형조류_2,Phoenicopterus,,아프리카,150%,150%,,10,,,,100%,b_bird2_1.atlas,b_bird2_1.spine,b_bird2_1.json.txt,,,
10035,rare,왕부리새,Toucan,중형조류,Ramphastidae,,아프리카,150%,150%,,10,,,,100%,m_bird_1.atlas,m_bird_1.spine,m_bird_1.json.txt,,,
10101,rare,털코뿔소,Elasmotherium,코뿔소,Elasmotherium caucasicum,,아프리카,300%,300%,,0,,,,100%,rhino_3.atlas,rhino_3.spine,rhino_3.json.txt,1.ogg,2.ogg,
10102,rare,고릴라,Gorila,유인원,Gorilla gorilla,,아프리카,300%,300%,,0,,,,100%,ape_2.atlas,ape_2.spine,ape_2.json.txt,,,
10103,rare,바바리사자,Barbary lion,사자,Panthera leo leo,,아프리카,300%,300%,,0,,,,90%,bigcat_2.atlas,bigcat_2.json.spine,bigcat_2.json.txt,,,
10104,rare,야생당나귀,Donkey,말,Equus africanus,,아프리카,300%,300%,,0,,,,70%,hors_2.atlas,hors_2.spine,hors_2.json.txt,,,
10105,rare,다마가젤,Dama gazelle,작은영양,Nanger dama,,아프리카,300%,300%,,0,,,,100%,s_gazel_4.atlas,s_gazel_4.atlas.spine,s_gazel_4.json.txt,,,
10106,rare,리추에,Lechwe,작은영양,Kobus leche,,아프리카,300%,300%,,0,,,,80%,s_gazel_3.atlas,s_gazel_3.atlas.spine,s_gazel_3.json.txt,,,
10107,rare,봉고,Bongo,큰영양,Tragelaphus eurycerus,,아프리카,300%,300%,,0,,,,100%,b_gazel_1.atlas,b_gazel_1.spine,b_gazel_1.json.txt,,,
10108,rare,마사이기린,Masai giraffe,기린,Giraffa camelopardalis tippelskirchi,,아프리카,300%,300%,,0,,,,100%,grif_2.atlas,grif_2.spine,grif_2.json.txt,,,
10109,rare,독수리,Eagle,대형조류_1, Aegypius monachus,,아프리카,300%,300%,,,,,,100%,b_bird1_1.atlas,b_bird1_1.spine,b_bird1_1.json.txt,,,
10201,unique,매머드,Mammoth,코끼리,Mammuthus primigenius,,아프리카,500%,500%,스킬1 쿨타임 -5초 감소,0,,,,100%,eleph_3.atlas,eleph_3.spine,eleph_3.json.txt,1.ogg,2.ogg,
10202,unique,난쟁이하마,Dwarf hippo,하마,Hippopotamus lemerlei,,아프리카,500%,500%,스킬2 효과 20%증가,0,,,,70%,hipo_2.atlas,hipo_2.spine,hipo_2.json.txt,1.ogg,2.ogg,
200001,limited,청록마코앵무,Glaucous macaw,소형조류,Anodorhynchus glaucus,,아프리카,777%,777%,,,,,,100%,s_bird_1.atlas,s_bird_1.spine,s_bird_1.json.txt,,       ,