,english,korean,japanese,Chinese_simplified,Chinese_traditional
field,Field,초원,,,
ok,OK,확인,,,
cancel,Cancel,취소,,,
yes,Yes,예,,,
no,No,아니오,,,
tap,Tap,탭,,,
free,FREE,무료,,,
animal,Animal,동물,,,
lifeleaf,Life Leaf,생명의잎,,,
relic,Relic,유물,,,
map,Map,월드맵,,,
shop,Shop,상점,,,
life,LIfe,생명력,,,
unlock,Unlock,잠금해제,,,
plant1,Plant 1,빨간 강아지 풀,,,
plant2,Plant 2,사탕버섯,,,
plant3,Plant 3,형광고사리,,,
plant4,Plant 4,붉은 심장 덤불,,,
plant5,Plant 5,원숭이 토템,,,
plant6,Plant 6,사자바위,,,
plant7,Plant 7,금빛 나무,,,
plant8,Plant 8,학자리,,,
plant9,Plant 9,뿌리폭포,,,
plant10,Plant 10,오리바위,,,
plant11,Plant 11,바오밥나무,,,
plant12,Plant 12,고래자리,,,
plant13,Plant 13,미어캣 토템,,,
plant14,Plant 14,원숭이자리,,,
sec,Sec,초,,,
level,Lv.,레벨,,,
foot tree,Footree,발바닥 나무,,,
african elephant,african elephant,아프리카코끼리,,,
forest elephant,forest elephant,둥근귀코끼리,,,
white rhino,white rhino,흰코뿔소,,,
chimpanzee,chimpanzee,침팬지,,,
hippo,hippo,하마,,,
Sable antelope,Sable antelope,검은영양,,,
bushpig,bushpig,덤불맷돼지,,,
spotted hyena,spotted hyena,점박이하이에나,,,
bull,bull,소,,,
lion,lion,사자,,,
mandrill,mandrill,맨드릴비비,,,
pygmy hippo,pygmy hippo,꼬마하마,,,
Warthog,Warthog,혹맷돼지,,,
Fennec Fox,Fennec Fox,사막여우,,,
zebra,zebra,얼룩말,,,
oryx dammah,oryx dammah,흰오릭스,,,
brown hyena,brown hyena,갈색하이에나,,,
aardvark,aardvark,땅돼지,,,
black rhino,black rhino,검은코뿔소,,,
Bluebuck,Bluebuck,파란영양,,,
Gnu,Gnu,누우,,,
okapi,okapi,오카피,,,
baboon,baboon,개코원숭이,,,
Beisa oryx,Beisa oryx,베이사오릭스,,,
panther,panther,흑표범,,,
pig,pig,돼지,,,
leopard,leopard,표범,,,
striped hyena,striped hyena,줄무늬하이에나,,,
t​homsonii,t​homsonii,톰슨가젤,,,
Cape buffalo,Cape buffalo,버팔로,,,
ong-eared fox,ong-eared fox,큰귀여우,,,
reticulated giraffe,reticulated giraffe,그물무늬기린,,,
Cony,Cony,굴토끼,,,
Elasmotherium,Elasmotherium,털코뿔소,,,
gorila,gorila,고릴라,,,
Barbary lion,Barbary lion,바바리사자,,,
donkey,donkey,야생당나귀,,,
dama gazelle,dama gazelle,다마가젤,,,
Lechwe,Lechwe,리추에,,,
bongo,bongo,봉고,,,
Masai giraffe,Masai giraffe,마사이기린,,,
mammoth,mammoth,매머드,,,
dwarf hippo,dwarf hippo,난쟁이하마,,,
tree of life,Tree of life,생명수,,,
selected area,We are here,현재 위치,,,
move,MOVE,이동,,,
open area,OPEN AREA,개방,,,
area0,Africa,아프리카,,,
area1,Asia,아시아,,,
area2,Oceania,오세아니아,,,
area3,S.America,남미,,,
area4,N.America,북미,,,
area5,South Pole,남극,,,
relic_0,relic_rune_1,룬스톤-T,,,
relic_1,relic_rune_2,룬스톤-A,,,
relic_2,relic_rune_3,룬스톤-P,,,
relic_3,relic_rune_4,룬스톤-S,,,
relic_4,relic_rune_5,룬스톤-B,,,
relic_5,relic_rune_6,룬스톤-N,,,
relic_6,relic_rune_7,룬스톤-H,,,
relic_7,relic_feather_1,삼족오 깃털,,,
relic_8,relic_feather_2,봉황 깃털,,,
relic_9,relic_feather_3,불사 조깃털,,,
relic_10,relic_feather_4,로크 깃털,,,
relic_11,relic_ammonite_1,노란 암모나이트,,,
relic_12,relic_ammonite_2,보라 암모나이트,,,
relic_13,relic_ammonite_3,빨간 암모나이트,,,
relic_14,relic_mural_1,공룡 벽화,,,
relic_15,relic_mural_2,사자 벽화,,,
relic_16,relic_mural_3,기린 벽화,,,
relic_17,relic_amber_1,흰나비 호박,,,
relic_18,relic_amber_2,잠자리 호박,,,
relic_19,relic_amber_3,벌 호박,,,
relic_20,relic_itoad_1,나무두꺼비조각,,,
relic_21,relic_itoad_2,돌 두꺼비 조각,,,
relic_22,relic_itoad_3,금 두꺼비 조각,,,
relic_23,relic_symbol_1,코끼리 문양,,,
relic_24,relic_symbol_2,물소 문양,,,
relic_25,relic_symbol_3,고양이 문양,,,
relic_26,relic_idol_1,고양이 신상,,,
relic_27,relic_idol_2,개 신상,,,
relic_28,relic_idol_3,기린 신상,,,
relic_29,relic_pony_1,나무 말머리 조각,,,
relic_30,relic_pony_2,돌 말머리 조각,,,
relic_31,relic_pony_3,금 말머리 조각,,,
relic_32,relic_canine_1,재규어 이빨,,,
relic_33,relic_canine_2,사자 이빨,,,
relic_34,relic_canine_3,호랑이 이빨,,,
relic_35,relic_ivory_1,흰 코끼리 상아,,,
relic_36,relic_ivory_2,분홍 코끼리 상아,,,
relic_37,relic_ivory_3,금 코끼리 상아,,,
relic_38,relic_unicorn_1,빨간 유니콘 뿔,,,
relic_39,relic_unicorn_2,파란 유니콘 뿔,,,
relic_40,relic_unicorn_3,초록 유니콘 뿔,,,
equip,Equip,장착,,,
unequip,Unequip,해제하기,,,
discover relic,Discover relic,유물 발굴,,,
getting ready,Getting ready,대기중,,,
equipped,Equipped,장착중,,,
manage,Manage,관 리,,,
rare species,Rare Species,희귀종,,,
pick rare,Draw Rare,희귀종 탄생,,,
rare description,Get rare animals.,유물 포인트로\n희귀종을 얻어보세요!,,,
needed,Needed,필요,,,
need animal format,Need %d animals,동물 %d 마리 필요,,,
create,Create,탄생,,,
unlock under condition,Force Unlock,조건 탄생,,,
no relic to pick anymore,All relics are revealed!,모든 유물을 보유하고 있습니다.,,,
not enough gem,Not enough gems.,보석이 부족합니다.,,,
not enough relic point,Not enough relic point.,유물 포인트가 부족합니다.,,,
not enough life,Not enough leafs.,생명력이 부족합니다.,,,
get relic description,What relic would it be?,"누군가 남기고 간 선물, 그것은 유물!\n 선조의 지혜는 우리를 살찌운다.\n 어떤 유물이 나올까요?",,,
relic got,You’ve got relic!,유물 획득!,,,
equipped relic effect,Equipped relics’ effect,장착된 유물 효과,,,
relic effect format0,Increase tap %d%%,탭 당 생산력 %d%%증가,,,
relic effect format1,Increase tap %d%%,자동 생산력 %d%%증가,,,
relic effect format2,Increase tap %d%%,스킬1 %d초시간증가,,,
relic effect format3,Increase tap %d%%,스킬2 획득량 %d%%증가,,,
relic effect format4,Increase tap %d%%,스킬3 %d배 증가,,,
relic effect format5,Increase tap %d%%,스킬1%d초 쿨타임 감소,,,
relic effect format6,Increase tap %d%%,스킬2 %d초 쿨타임 감소,,,
relic effect format7,Increase tap %d%%,스킬3 %d초 쿨타임 감소,,,
relic effect format8,Increase tap %d%%,동물 터치 보상 %d%% 증가,,,
relic effect format9,Increase tap %d%%,유물 포인트 획득 %d%% 증가,,,
relic effect format10,Increase tap %d%%,대기 상태 획득 %d%% 증가,,,
relic management,Relic management,유물 관리,,,
relic slot unlocked,Relic slot is just unlocked!,유물 슬롯 확장 성공!,,,
want to learn,I want to learn how to speak.,말을 배우고 싶어요.,,,
input text,Input Text,대사 입력,,,
share,Share,공유하기,,,
put in,Put In,넣 기,,,
put out,Put Out,빼 기,,,
manage animal,Managing Animals,동물 관리,,,
animal have,Animals you have,보유 동물,,,
animal active,Animals in active,활동 동물,,,
animal have kind,Animals kinds,보유 종,,,
talk common0,animal can do something 0,동물 머리위에 뜨는 나뭇잎을 누르면 생명력을 모을 수 있어요,,,
talk common1,animal can do something 1,동물 머리위에 뜨는  i 를 누르면 보석을 얻을 수 있어요,,,
talk common2,animal can do something 2,동물을 탄생시키면 전체 생산량이 올라갑니다.,,,
talk common3,animal can do something 3,초원의 풀들의 레벨을 올리면 시간당 생산력이 올라갑니다.,,,
talk common4,animal can do something 4,초원의 식물을 만들면 유물포인트를 받습니다.,,,
talk common5,animal can do something 5,동물을 탄생시키면 유물포인트를 받습니다.,,,
talk common6,animal can do something 6,유물을 장착하면 추가 효과를 얻을 수 있습니다.,,,
talk common7,animal can do something 7,희귀동물은 유물포인트로 탄생 시킬수 있습니다.,,,
talk common8,animal can do something 8,구글 인디페스티벌 화이팅!,,,
talk common9,animal can do something 9,구글 인디페스티벌 화이팅!,,,
talk common10,animal can do something 10,구글 인디페스티벌 화이팅!,,,
talk gem0,Help the animal in danger of extinct.,"멸종된 동물인 메머드 코끼리 DNA 화 합쳐서 
복원을 시도중이래요",,,
talk gem1,"Help the animal in danger of extinct, please!",코뿔소의 뿔인 서각은 약재로 비싸게 팔리기 때문인지 대부분 멸종위기입니다. 공유해서 친구들에게 알려 줄까요?,,,
talk gem2,,오랑우탄 멸종위기의 원인은 팜유? 열대우림을 불태우고 팜유농장을 세우면서 삶이 터전이 없어지고 있습니다.,,,
talk gem3,,"중국의 자연 서식지에는 단지 1,000 마리의 팬더가 남아 있습니다. 광범위한 밀렵과 그 자연 환경의 상실은 판다 인구 감소의 주요 원인입니다.",,,
talk gem4,,악어 자라는 북아메리카에서 발견되는 가장 큰 담수 거북이며 지금은 완전히 멸종 위기에 처해 있습니다. 그들은 양질의 고기를 판매하는 상인들과 사냥꾼들에 의해 사냥 당합니다,,,
talk gem5,,보르네오 문착 사슴과의 동물이며 이름에서 알 수 있듯이 보루네오 섬에 주로 서식한다. 멸종위기에 가까워진 이유는 서식지의 파괴이다.,,,
talk gem6,,오메가3와 털가죽을 채취하기위해 잔인한 하프물범 사냥이 큰 문제가 되고있습니다. 하프물범은 관심 필요종으로 분류되었습니다.,,,
talk gem7,,검은 자와 표범(Black Javan Leopard) 은 인도네시아 자와섬에 서식하는 종입니다.재 서식지 손실과 밀렵으로 인해 성숙한 개체는 250마리 미만으로 추정되며심각한 위기종 으로 분류되었습니다.,,,
talk gem8,,"아닥스(addax)는 소과에 속하는 영양의 일종으로사막에 서식하며 모리타니, 말리, 차드 등에 분포합니다.아닥스는 과거에는 이집트의 벽화에 기록되는 등 넓은 지역에 서식하였지만,서식지 상실과 뿔을 얻기 위해 행해진 남획으로 수가 많이 줄어심각한 위기종 으로 분류되었습니다.",,,
input sentence,"Input a sentence, here!",여기에 문장을 입력하세요.,,,
magic0,Free life,무료 생명력 받기,,,
magic1,Blessing of shower,축복의 소나기,,,
magic2,Blessing of wind,바람의 축복,,,
magic3,Blessing of rain,비의 축복,,,
magic4,Blessing of sun,태양의 축복,,,
shop0,Free gem,무료 보석 받기,,,
shop1,Free gem,무료 보석 받기,,,
shop2,Gem 100,보석 100개,,,
shop3,Gem 600,보석 600개,,,
shop4,Gem 2500,보석 2500개,,,
shop5,Gem 10000,보석 10000개,,,
magicDescription0,30분짜리 생명력을 즉시 획득,30분짜리 생명력을 즉시 획득,,,
magicDescription1,15분 동안 생명력 생산량 2배 증가,15분 동안 생명력 생산량 2배 증가,,,
magicDescription2,5시간짜리 생명력을 즉시 획득,5시간짜리 생명력을 즉시 획득,,,
magicDescription3,20시간짜리 생명력을 즉시 획득,20시간짜리 생명력을 즉시 획득,,,
magicDescription4,50시간짜리 생명력을 즉시 획득,50시간짜리 생명력을 즉시 획득,,,
shopDescription0,,,,,
shopDescription1,,,,,
shopDescription2,,,,,
shopDescription3,,,,,
shopDescription4,,,,,
shopDescription5,,,,,
exit game,Exit game?,게임을 종료하시겠습니까?,,,
just gem,Get Gem,보석받기,,,
share and gem,Share And Get Gem,공유하고 보석받기,,,
need to login,"You need to log-in, first.",로그인 후 사용 가능합니다.,,,