
1. 같이 보내드린 PDF 이미지들과 같이 보시면 됩니다.

2. 잡풀을 심을 때, 이번에 같이 보내드리는 PNG 파일을 써주셨으면 합니다.
PSD 파일에 있는 잡풀 레이어들을 조금씩 수정했거든요. 

3. (작업하기에 조금이라도 까다로우시면 이건 굳이 안하셔도 됩니다.)
 제 생각인데 들판 위의 잡풀중에 중복으로 쓰이는 
몆개를 아무거나 좌우반전시켜서 심어주시면 더 자연스러워서
좋을 것 같습니다.

4. 좌표는 미들센터(x, y)로 표기햇습니다.
잡풀과 덤불은 배경 오브젝트가 업그레이드 될때마다, 
14단계 X 각각 5단계 = 70단계로 늘어납니다.

●1단계

1_1단계:

grass_e_1 (1320, 376)


1_2단계:

grass_e_2 (1176, 374)


1_3단계:

grass_e_3 (1482, 374)


1_4단계:

grass_e_4 (1586, 372)


1_5단계:

grass_e_5 (1066, 372)



●2단계

2_1단계:

grass_e_5 (950, 372)


2_2단계:

grass_d_3 (976, 442)


2_3단계:

grass_d_4 (1708, 442)

grass_d_5 (1754, 442)


2_4단계:

grass_e_6 (1720, 372)


2_5단계:

bush_d_2 (1714, 384)



●3단계

3_1단계:

grass_e_6 (808, 372)


3_2단계:

grass_d_2 (874, 440)

grass_d_1 (918, 442)

grass_c_5 (930, 490)


3_3단계:

grass_c_6 (1716, 496)

grass_c_5 (1792, 490)


3_4단계:

grass_d_5(1848, 442)

grass_d_6(1892, 442)

grass_d_4(1938, 442)


3_5단계:

grass_e_2 (1906, 374)


●4단계

4_1단계:

grass_d_4 (594, 372)


4_2단계:

grass_d_3 (808, 442)

grass_d_4 (750, 442)


4_3단계:

grass_c_6 (854, 496)

grass_c_4 (788, 488)


4_4단계:

bush_a_2 (678, 602)


4_5단계:

bush_a_1 (814, 608)


●5단계

5_1단계:

grass_b_5 (1048, 572)


5_2단계:

grass_b_4 (1152, 576)


5_3단계:

grass_b_2 (1318, 572)


5_4단계:

grass_b_5 (1444, 572)


5_5단계:

grass_b_3 (1594, 572)


●6단계

6_1단계:

grass_e_3 (2046, 374)


6_2단계:

grass_d_1 (2040, 442)

grass_d_2 (1994, 440)


6_3단계:

grass_c_6 (1894, 496)

grass_c_3 (1972, 492)


6_4단계:

grass_b_2 (1696, 572)


6_5단계:

grass_b_1 (1776, 572)



●7단계

7_1단계:

grass_e_3 (424, 374)


7_2단계:


grass_d_3 (534, 442)

grass_d_2 (466, 440)


7_3단계:

grass_c_1 (656, 494)

grass_c_2 (588, 496)


7_4단계:

bush_c_1 (642 , 442)


7_5단계:

grass_b_6 (932, 574)


●8단계

8_1단계:

grass_e_2 (2240, 374)


8_2단계:

grass_d_3 (2138, 442)


8_3단계:

grass_d_2 (2204, 440)



8_4단계:

grass_c_4 (2148, 488)


8_5단계:

grass_c_5 (1922, 572)


●9단계

9_1단계:

grass_e_2 (306, 374)


9_2단계:

grass_d_1 (424, 442)

grass_d_3 (356, 442)


9_3단계:

grass_c_1 (456, 494)

grass_c_3 (534, 492)


9_4단계:

grass_d_2 (290, 440)

grass_c_3 (388, 432)


9_5단계:

grass_b_1 (594, 572)


●10단계

10_1단계:

geass_b_6 (2014, 572)

geass_b_4 (2094, 574)


10_2단계:

geass_c_6 (2214, 496)

geass_c_5 (2288, 490)


10_3단계:

geass_d_1 (2248, 442)

geass_d_1 (2302, 442)


10_4단계:

geass_d_5 (2046, 442)

geass_d_6 (2362, 442)


10_5단계:

bush_d_3 (2428, 386)


●11단계

11_1단계:

grass_e_4 (148, 372)


11_2단계:

grass_d_1 (246, 442)

grass_c_2 (338, 496)


11_3단계:

grass_b_3 (494, 572)


11_4단계:

grass_b_2 (392, 572)


11_5단계:

grass_b_1 (296, 572)

grass_c_1 (282, 494)

bush_d_1 (22, 386)


●12단계

12_1단계:

bush_d_4 (2508, 392)


12_2단계:

grass_d_4 (2452, 442)

grass_d_4 (2508, 442)


12_3단계:

grass_c_4 (2456, 488)


12_4단계:

grass_b_6 (2208, 572)

grass_b_5 (2318, 572)


12_5단계:

bush_b_2 (2408, 534)


●13단계

13_1단계:

grass_b_2 (108, 572)

grass_b_2 (208, 572)


13_2단계:

bush_b_1 (118, 500)


13_3단계:

grass_a_1 (162, 702)


13_4단계:

grass_a_2 (356, 696)

grass_a_3 (488, 702)


13_5단계:

grass_a_2 (1122, 694)

grass_a_4 (1232, 692)

grass_a_6 (1372, 700)


●14단계

14_1단계:

grass_a_2 (1458, 696)

grass_a_5 (1594, 696)


14_2단계:

grass_a_4 (1734, 694)

grass_a_6 (1870, 700)

grass_a_5 (1964, 696)


14_3단계:

grass_a_2 (2134, 702)

grsaa_a_3 (2256, 702)

grass_a_2 (2388, 694)


14_4단계:

grass_b_4 (2448, 574)

grass_b_6 (2568, 572)


14_5단계:

bush_b_3 (2590, 500)

